70

C	3.4802	-0.7345	0
C	0.37689	-3.53684	0
C	-3.247269	-1.451387	0
C	-2.383813	2.639833	0
C	1.773992	3.082894	0
C	3.4802	0.7345	0
C	1.773992	-3.082894	0
C	-2.383813	-2.639833	0
C	-3.247269	1.451387	0
C	0.37689	3.53684	0
C	3.161772	-1.412163	1.204436
C	-0.366006	-3.443406	1.204436
C	-3.387976	-0.715979	1.204436
C	-1.727878	3.000907	1.204436
C	2.320088	2.570641	1.204436
C	3.161772	-1.412163	-1.204436
C	-0.366006	-3.443406	-1.204436
C	-3.387976	-0.715979	-1.204436
C	-1.727878	3.000907	-1.204436
C	2.320088	2.570641	-1.204436
C	3.161772	1.412163	1.204436
C	2.320088	-2.570641	1.204436
C	-1.727878	-3.000907	1.204436
C	-3.387976	0.715979	1.204436
C	-0.366006	3.443406	1.204436
C	3.161772	1.412163	-1.204436
C	2.320088	-2.570641	-1.204436
C	-1.727878	-3.000907	-1.204436
C	-3.387976	0.715979	-1.204436
C	-0.366006	3.443406	-1.204436
C	2.930921	-0.692831	2.438684
C	0.246783	-3.001568	2.438684
C	-2.778401	-1.16224	2.438684
C	-1.963929	2.283265	2.438684
C	1.564626	2.573375	2.438684
C	2.930921	-0.692831	-2.438684
C	0.246783	-3.001568	-2.438684
C	-2.778401	-1.16224	-2.438684
C	-1.963929	2.283265	-2.438684
C	1.564626	2.573375	-2.438684
C	2.930921	0.692831	2.438684
C	1.564626	-2.573375	2.438684
C	-1.963929	-2.283265	2.438684
C	-2.778401	1.16224	2.438684
C	0.246783	3.001568	2.438684
C	2.930921	0.692831	-2.438684
C	1.564626	-2.573375	-2.438684
C	-1.963929	-2.283265	-2.438684
C	-2.778401	1.16224	-2.438684
C	0.246783	3.001568	-2.438684
C	-0.744934	-2.292672	-3.217006
C	-2.410658	0	-3.217006
C	-0.744934	2.292672	-3.217006
C	1.950264	1.416949	-3.217006
C	1.950264	-1.416949	-3.217006
C	1.950264	-1.416949	3.217006
C	1.950264	1.416949	3.217006
C	-0.744934	2.292672	3.217006
C	-2.410658	0	3.217006
C	-0.744934	-2.292672	3.217006
C	-0.381038	-1.172715	-3.963003
C	-1.233066	0	-3.963003
C	-0.381038	1.172715	-3.963003
C	0.997571	0.724778	-3.963003
C	0.997571	-0.724778	-3.963003
C	0.997571	-0.724778	3.963003
C	0.997571	0.724778	3.963003
C	-0.381038	1.172715	3.963003
C	-1.233066	0	3.963003
C	-0.381038	-1.172715	3.963003
