30

C	0.428004	-0.563355	0
C	-0.428004	0.563355	0
C	-0.155754	-1.868449	0
C	0.155754	1.868449	0
C	-1.504225	-2.050467	0
C	1.504225	2.050467	0
C	-2.400855	-0.942526	0
C	2.400855	0.942526	0
C	-1.867872	0.379174	0
C	1.867872	-0.379174	0
C	-2.78692	1.457053	0
C	2.78692	-1.457053	0
C	-4.148407	1.242427	0
C	4.148407	-1.242427	0
C	-3.802047	-1.136832	0
C	3.802047	1.136832	0
C	-4.665891	-0.066295	0
C	4.665891	0.066295	0
H	0.484639	-2.739715	0
H	-0.484639	2.739715	0
H	-1.918694	-3.053184	0
H	1.918694	3.053184	0
H	-2.42711	2.477051	0
H	2.42711	-2.477051	0
H	-4.825193	2.089452	0
H	4.825193	-2.089452	0
H	-4.185054	-2.152089	0
H	4.185054	2.152089	0
H	-5.738122	-0.226272	0
H	5.738122	0.226272	0
