
   Content of the .dal input file
 ----------------------------------

**DALTON INPUT
.RUN WAVE FUNCTIONS
**WAVE FUNCTIONS
.HF
.CI
*CI INPUT
.CINO
*CONFIGURATION INPUT
.INACTIVE
 0 0 0 0 0 0 0 0
.RAS1 SPACE
 1 0 0 0 0 0 0 0
.RAS2 SPACE
 0 0 0 0 0 0 0 0
.RAS3 SPACE
 1 1 1 0 1 0 0 0
.SYMMETRY
 1
.ELECTRONS
 2
.RAS1 HOLES
 0 2
.RAS3 ELECTRONS
 0 2
**END OF DALTON INPUT


   Content of the .mol file
 ----------------------------

ATOMBASIS


Atomtypes=1 Charge=0
Charge=2 Atoms=1 Basis=cc-pVDZ
He 0 0 0


@    Total number of symmetries                 8 (point group: D2h)


 Symmetry 1  ( Ag ) -- Total occupation in this symmetry is   1.993815882

   1.985492101   0.008323780

 Symmetry 2  ( B3u) -- Total occupation in this symmetry is   0.002061373

   0.002061373

 Symmetry 3  ( B2u) -- Total occupation in this symmetry is   0.002061373

   0.002061373

 Symmetry 4  ( B1g) -- No occupied orbitals

 Symmetry 5  ( B1u) -- Total occupation in this symmetry is   0.002061373

   0.002061373

 Symmetry 6  ( B2g) -- No occupied orbitals

 Symmetry 7  ( B3g) -- No occupied orbitals

 Symmetry 8  ( Au ) -- No occupied orbitals

