   Content of the .dal input file
 ----------------------------------

**DALTON INPUT
.DIRECT
.RUN PROPERTIES
**WAVE FUNCTIONS
.HF
*SCF INPUT
.THRESH
1e-10
*ORBITAL INPUT
.PUNCHOUTORBITALS
**PROPERTIES
.SPIN-SPIN
*SPIN-SPIN
.ISOTOP
2 3
**END OF DALTON INPUT


   Content of the .mol file
 ----------------------------

ATOMBASIS
Generated by Dalton Project

Atomtypes=2 Charge=0 Nosymmetry Angstrom
Charge=6.0 Atoms=1 Basis=STO-3G
C  -0.0000000000 -0.0000000000 0.6410378381
Charge=8.0 Atoms=1 Basis=STO-3G
O  0.0000000000 0.0000000000 -0.4903569678

              Indirect spin-spin coupling between O      and C     :
              ======================================================


  Mass number atom 1:   17;   Abundance:   0.040 %;   g factor:  -0.757516
  Mass number atom 2:   13;   Abundance:   1.100 %;   g factor:   1.404824

  Isotropic coupling        :      9.0119 Hz
  Anisotropic coupling      :    -75.9346 Hz
  Asymmetry                 :      0.0000
  S parameter               :    -75.9346 Hz
  A parameter               :     -0.0000 Hz
  Isotropic DSO contribution:     -0.0550 Hz
  Isotropic PSO contribution:      7.7591 Hz
  Isotropic SD contribution :     -7.5193 Hz
  Isotropic FC contribution :      8.8271 Hz