108

C	5.056429	-0.785075	0
C	5.056429	0.785075	0
C	1.84832	-4.771533	0
C	3.208109	-3.986459	0
C	-3.208109	-3.986459	0
C	-1.84832	-4.771533	0
C	-5.056429	0.785075	0
C	-5.056429	-0.785075	0
C	-1.84832	4.771533	0
C	-3.208109	3.986459	0
C	3.208109	3.986459	0
C	1.84832	4.771533	0
H	6.068789	-1.213289	0
H	6.068789	1.213289	0
H	1.983655	-5.86237	0
H	4.085134	-4.649081	0
H	-4.085134	-4.649081	0
H	-1.983655	-5.86237	0
H	-6.068789	1.213289	0
H	-6.068789	-1.213289	0
H	-1.983655	5.86237	0
H	-4.085134	4.649081	0
H	4.085134	4.649081	0
H	1.983655	5.86237	0
N	4.381606	-1.119367	-1.23418
N	4.381606	-1.119367	1.23418
N	4.381606	1.119367	1.23418
N	4.381606	1.119367	-1.23418
N	1.221402	-4.354266	-1.23418
N	1.221402	-4.354266	1.23418
N	3.160204	-3.234898	1.23418
N	3.160204	-3.234898	-1.23418
N	-3.160204	-3.234898	-1.23418
N	-3.160204	-3.234898	1.23418
N	-1.221402	-4.354266	1.23418
N	-1.221402	-4.354266	-1.23418
N	-4.381606	1.119367	-1.23418
N	-4.381606	1.119367	1.23418
N	-4.381606	-1.119367	1.23418
N	-4.381606	-1.119367	-1.23418
N	-1.221402	4.354266	-1.23418
N	-1.221402	4.354266	1.23418
N	-3.160204	3.234898	1.23418
N	-3.160204	3.234898	-1.23418
N	3.160204	3.234898	-1.23418
N	3.160204	3.234898	1.23418
N	1.221402	4.354266	1.23418
N	1.221402	4.354266	-1.23418
C	4.056488	0	1.994268
O	3.623339	0	3.119214
C	4.056488	0	-1.994268
O	3.623339	0	-3.119214
C	2.028244	-3.513021	1.994268
O	1.81167	-3.137904	3.119214
C	2.028244	-3.513021	-1.994268
O	1.81167	-3.137904	-3.119214
C	-2.028244	-3.513021	1.994268
O	-1.81167	-3.137904	3.119214
C	-2.028244	-3.513021	-1.994268
O	-1.81167	-3.137904	-3.119214
C	-4.056488	0	1.994268
O	-3.623339	0	3.119214
C	-4.056488	0	-1.994268
O	-3.623339	0	-3.119214
C	-2.028244	3.513021	1.994268
O	-1.81167	3.137904	3.119214
C	-2.028244	3.513021	-1.994268
O	-1.81167	3.137904	-3.119214
C	2.028244	3.513021	1.994268
O	1.81167	3.137904	3.119214
C	2.028244	3.513021	-1.994268
O	1.81167	3.137904	-3.119214
C	4.251958	-2.454869	-1.774005
H	4.057864	-2.342809	-2.841941
H	5.193567	-2.998507	-1.620922
C	4.251958	-2.454869	1.774005
H	4.057864	-2.342809	2.841941
H	5.193567	-2.998507	1.620922
C	0	-4.909739	-1.774005
H	0	-4.685618	-2.841941
H	0	-5.997015	-1.620922
C	0	-4.909739	1.774005
H	0	-4.685618	2.841941
H	0	-5.997015	1.620922
C	-4.251958	-2.454869	-1.774005
H	-4.057864	-2.342809	-2.841941
H	-5.193567	-2.998507	-1.620922
C	-4.251958	-2.454869	1.774005
H	-4.057864	-2.342809	2.841941
H	-5.193567	-2.998507	1.620922
C	-4.251958	2.454869	-1.774005
H	-4.057864	2.342809	-2.841941
H	-5.193567	2.998507	-1.620922
C	-4.251958	2.454869	1.774005
H	-4.057864	2.342809	2.841941
H	-5.193567	2.998507	1.620922
C	0	4.909739	-1.774005
H	0	4.685618	-2.841941
H	0	5.997015	-1.620922
C	0	4.909739	1.774005
H	0	4.685618	2.841941
H	0	5.997015	1.620922
C	4.251958	2.454869	-1.774005
H	4.057864	2.342809	-2.841941
H	5.193567	2.998507	-1.620922
C	4.251958	2.454869	1.774005
H	4.057864	2.342809	2.841941
H	5.193567	2.998507	1.620922
