16

C	1.579464	0.633214	0.37535
C	0.633214	1.579464	0.37535
C	-0.633214	-1.579464	0.37535
C	-1.579464	-0.633214	0.37535
C	1.579464	-0.633214	-0.37535
C	0.633214	-1.579464	-0.37535
C	-1.579464	0.633214	-0.37535
C	-0.633214	1.579464	-0.37535
H	2.493873	0.837543	0.930352
H	0.837543	2.493873	0.930352
H	-0.837543	-2.493873	0.930352
H	-2.493873	-0.837543	0.930352
H	2.493873	-0.837543	-0.930352
H	0.837543	-2.493873	-0.930352
H	-2.493873	0.837543	-0.930352
H	-0.837543	2.493873	-0.930352
