9
    Ethanol
    C     9.136479   11.724970   51.500927 C1
    H     9.294462   12.628635   50.910741 H1
    H     8.160480   11.311733   51.245960 H2
    H     9.126987   11.998458   52.556137 H3
    C    10.230421   10.715737   51.222941 C2
    H    11.209335   11.140253   51.472204 H4
    H    10.240910   10.452121   50.159449 H5
    O     9.976946    9.554726   52.018512 O
    H    10.663980    8.903366   51.853128 H6

