
   Content of the .dal input file
 ----------------------------------

**DALTON INPUT
.RUN WAVE FUNCTIONS
**WAVE FUNCTIONS
.HF
*ORBITAL INPUT
.PUNCHOUTORBITALS
**END OF DALTON INPUT


   Content of the .mol file
 ----------------------------

ATOMBASIS


Atomtypes=1 Charge=0 NoSymmetry
Charge=2 Atoms=1 Basis=cc-pVDZ
He 0 0 0

@    Abelian symmetry species          All |    1
@                                          |  A
                                       --- |  ---
@    Occupied SCF orbitals               1 |    1
@    Secondary orbitals                  4 |    4
@    Total number of orbitals            5 |    5
@    Number of basis functions           5 |    5

 Number of electrons :    2

 Sym       Hartree-Fock orbital energies

1 A      -0.91414794     1.39744169     2.52437201     2.52437201     2.52437201

    E(LUMO) :     1.39744169 au (symmetry 1)

@    Final HF energy:              -2.855160477243
@    Nuclear repulsion:             0.000000000000

