
   Content of the .dal input file
 ----------------------------------

**DALTON INPUT
.RUN WAVE FUNCTIONS
**WAVE FUNCTIONS
.HF
.MP2
**END OF DALTON INPUT


   Content of the .mol file
 ----------------------------

ATOMBASIS


Atomtypes=1 Charge=0
Charge=2 Atoms=1 Basis=cc-pVDZ
He 0 0 0


@    Total number of symmetries                 8 (point group: D2h)

@   = MP2 second order energy   :            -2.8809888169

 Natural orbital occupation numbers, symmetry 1 (irrep Ag )
 Sum =     1.99574442; RHF =     2.00000000; Difference =    -0.00425558

         1.99090161     0.00484282

 Natural orbital occupation numbers, symmetry 2 (irrep B3u)
 Sum =     0.00141853; RHF =     0.00000000; Difference =     0.00141853

         0.00141853

 Natural orbital occupation numbers, symmetry 3 (irrep B2u)
 Sum =     0.00141853; RHF =     0.00000000; Difference =     0.00141853

         0.00141853

 Natural orbital occupation numbers, symmetry 5 (irrep B1u)
 Sum =     0.00141853; RHF =     0.00000000; Difference =     0.00141853

         0.00141853

 Time used for MP2 natural orbitals :       0.016 CPU seconds,       0.078 wall seconds.