6

C	 -0.72684243	0.01282538	0.00000000
O	 0.69008480	-0.06384431	0.00000000
Cl	 -1.11419484	0.51649006	0.88700000
Br	 -1.11419484	0.51649006	-0.88700000
Mn	 -1.09552321	-1.00774528	0.00000000
H	 1.02615777	0.83531082	0.00000000
