52

Si	1.589676	1.589676	1.589676
Si	-1.589676	-1.589676	1.589676
Si	-1.589676	1.589676	-1.589676
Si	1.589676	-1.589676	-1.589676
Si	-1.589676	1.589676	1.589676
Si	1.589676	-1.589676	1.589676
Si	1.589676	1.589676	-1.589676
Si	-1.589676	-1.589676	-1.589676
O	1.892925	0	1.892925
O	0	1.892925	1.892925
O	-1.892925	0	1.892925
O	0	-1.892925	1.892925
O	0	1.892925	-1.892925
O	-1.892925	0	-1.892925
O	0	-1.892925	-1.892925
O	1.892925	0	-1.892925
O	-1.892925	1.892925	0
O	-1.892925	-1.892925	0
O	1.892925	-1.892925	0
O	1.892925	1.892925	0
C	2.657312	2.657312	2.657312
C	-2.657312	-2.657312	2.657312
C	-2.657312	2.657312	-2.657312
C	2.657312	-2.657312	-2.657312
C	-2.657312	2.657312	2.657312
C	2.657312	-2.657312	2.657312
C	2.657312	2.657312	-2.657312
C	-2.657312	-2.657312	-2.657312
H	3.714769	2.462941	2.462941
H	2.462941	3.714769	2.462941
H	2.462941	2.462941	3.714769
H	-3.714769	-2.462941	2.462941
H	-2.462941	-3.714769	2.462941
H	-2.462941	-2.462941	3.714769
H	-3.714769	2.462941	-2.462941
H	-2.462941	3.714769	-2.462941
H	-2.462941	2.462941	-3.714769
H	3.714769	-2.462941	-2.462941
H	2.462941	-3.714769	-2.462941
H	2.462941	-2.462941	-3.714769
H	-2.462941	2.462941	3.714769
H	-2.462941	3.714769	2.462941
H	-3.714769	2.462941	2.462941
H	2.462941	-2.462941	3.714769
H	2.462941	-3.714769	2.462941
H	3.714769	-2.462941	2.462941
H	2.462941	2.462941	-3.714769
H	2.462941	3.714769	-2.462941
H	3.714769	2.462941	-2.462941
H	-2.462941	-2.462941	-3.714769
H	-2.462941	-3.714769	-2.462941
H	-3.714769	-2.462941	-2.462941
