8

C	0	0	-0.76535
C	0	0	0.76535
H	1.009783	0.13294	-1.163629
H	-0.620021	0.808027	-1.163629
H	-0.389762	-0.940968	-1.163629
H	1.009783	-0.13294	1.163629
H	-0.620021	-0.808027	1.163629
H	-0.389762	0.940968	1.163629
