25

Cr	0	0	0
C	1.366399	-0.366125	1.6476
C	0.366125	-1.366399	1.6476
C	-1.000273	-1.000273	1.6476
C	-1.366399	0.366125	1.6476
C	-0.366125	1.366399	1.6476
C	1.000273	1.000273	1.6476
H	2.412883	-0.64653	1.6476
H	0.64653	-2.412883	1.6476
H	-1.766353	-1.766353	1.6476
H	-2.412883	0.64653	1.6476
H	-0.64653	2.412883	1.6476
H	1.766353	1.766353	1.6476
C	1.366399	0.366125	-1.6476
C	0.366125	1.366399	-1.6476
C	-1.000273	1.000273	-1.6476
C	-1.366399	-0.366125	-1.6476
C	-0.366125	-1.366399	-1.6476
C	1.000273	-1.000273	-1.6476
H	2.412883	0.64653	-1.6476
H	0.64653	2.412883	-1.6476
H	-1.766353	1.766353	-1.6476
H	-2.412883	-0.64653	-1.6476
H	-0.64653	-2.412883	-1.6476
H	1.766353	-1.766353	-1.6476
