24

C	1.8594	0	0
C	1.314794	-1.314794	0
C	0	-1.8594	0
C	-1.314794	-1.314794	0
C	-1.8594	0	0
C	-1.314794	1.314794	0
C	0	1.8594	0
C	1.314794	1.314794	0
C	3.2376	0	0
C	2.289329	-2.289329	0
C	0	-3.2376	0
C	-2.289329	-2.289329	0
C	-3.2376	0	0
C	-2.289329	2.289329	0
C	0	3.2376	0
C	2.289329	2.289329	0
S	3.923347	-1.625103	0
S	1.625103	-3.923347	0
S	-1.625103	-3.923347	0
S	-3.923347	-1.625103	0
S	-3.923347	1.625103	0
S	-1.625103	3.923347	0
S	1.625103	3.923347	0
S	3.923347	1.625103	0
