45

C	1.27306	0	0.900048
C	0	0	0
C	-1.272936	0	0.900242
C	-0.000072	-1.273005	-0.900144
C	-0.000064	1.272998	-0.900154
C	2.39542	0.795728	0.655971
C	-2.395333	-0.795723	0.656342
C	0.795674	-2.395381	-0.656201
C	-0.795777	2.395376	-0.656112
C	3.518476	0.736667	1.483733
C	-3.518263	-0.736655	1.484275
C	0.736553	-3.518381	-1.484036
C	-0.736769	3.518369	-1.483964
C	3.54566	-0.115616	2.580434
C	-3.545281	0.115637	2.580972
C	-0.11581	-3.545491	-2.580676
C	0.115444	3.54547	-2.580721
C	1.313307	-0.845154	2.022459
C	-1.313012	0.845171	2.022652
C	-0.845307	-1.313175	-2.022496
C	0.845017	1.313159	-2.022622
C	2.430507	-0.908063	2.847759
C	-2.430086	0.908086	2.848121
C	-0.908276	-2.430319	-2.847867
C	0.907873	2.430296	-2.848011
H	2.405392	1.48411	-0.176543
H	-2.405432	-1.484111	-0.176165
H	1.484116	-2.405411	0.176262
H	-1.484105	2.405412	0.176445
H	4.370404	1.371423	1.265918
H	-4.370224	-1.371413	1.266594
H	1.371325	-4.370324	-1.266324
H	-1.371511	4.370314	-1.266172
H	4.417012	-0.157608	3.224229
H	-4.416535	0.157634	3.224899
H	-0.157848	-4.416799	-3.224527
H	0.157394	4.416773	-3.224585
H	0.451623	-1.458084	2.257741
H	-0.451293	1.458102	2.257798
H	-1.458254	-0.451476	-2.257675
H	1.457932	0.451457	-2.257878
H	2.426198	-1.573294	3.704384
H	-2.425648	1.573324	3.70474
H	-1.573569	-2.425953	-3.704444
H	1.573049	2.425922	-3.704679
