28

Ir	0.97168	0.97168	0.97168
Ir	-0.971681	-0.971681	0.971681
Ir	-0.971681	0.971681	-0.971681
Ir	0.971681	-0.971681	-0.971681
C	2.194474	2.194474	0.110633
C	0.110633	2.194474	2.194474
C	2.194474	0.110633	2.194474
C	-2.194474	-2.194474	0.110633
C	-0.110633	-2.194474	2.194474
C	-2.194474	-0.110633	2.194474
C	-2.194474	0.110633	-2.194474
C	-2.194474	2.194474	-0.110633
C	-0.110633	2.194474	-2.194474
C	0.110633	-2.194474	-2.194474
C	2.194474	-0.110633	-2.194474
C	2.194474	-2.194474	-0.110633
O	2.91595	2.91595	-0.394472
O	-0.394472	2.91595	2.91595
O	2.91595	-0.394472	2.91595
O	-2.91595	-2.91595	-0.394472
O	0.394472	-2.91595	2.91595
O	-2.91595	0.394472	2.91595
O	-2.91595	-0.394472	-2.91595
O	-2.91595	2.91595	0.394472
O	0.394472	2.91595	-2.91595
O	-0.394472	-2.91595	-2.91595
O	2.91595	0.394472	-2.91595
O	2.91595	-2.91595	0.394472
