20

C	0.796	0	-1.0397
C	0.796	0	1.0397
C	-0.796	0	-1.0397
C	-0.796	0	1.0397
C	1.309773	-1.045369	0
C	1.309773	1.045369	0
C	-1.309773	-1.045369	0
C	-1.309773	1.045369	0
H	1.207723	0	-2.050461
H	1.207723	0	2.050461
H	-1.207723	0	-2.050461
H	-1.207723	0	2.050461
H	0.926605	-2.062916	0
H	-0.926605	-2.062916	0
H	0.926605	2.062916	0
H	-0.926605	2.062916	0
H	2.400803	-1.088949	0
H	-2.400803	-1.088949	0
H	2.400803	1.088949	0
H	-2.400803	1.088949	0
