35

C	0	0	0.734704
H	0	0	1.830604
C	1.473555	0	0.319257
C	1.943531	-0.68837	-0.802098
C	3.291315	-0.634953	-1.158369
C	4.19187	0.102652	-0.395633
C	2.390481	0.736243	1.079542
C	3.73559	0.788782	0.72911
H	1.25648	-1.279136	-1.396359
H	3.636072	-1.177827	-2.031747
H	5.240104	0.139143	-0.670159
H	2.042556	1.277538	1.953885
H	4.428599	1.361952	1.335207
C	-0.736778	-1.276136	0.319257
C	-1.567911	-1.338962	-0.802098
C	-2.195543	-2.532886	-1.158369
C	-2.007036	-3.681592	-0.395633
C	-0.557635	-2.438338	1.079542
C	-1.184689	-3.629507	0.72911
H	-1.736004	-0.448576	-1.396359
H	-2.838064	-2.560017	-2.031747
H	-2.49955	-4.607635	-0.670159
H	0.085102	-2.407674	1.953885
H	-1.034814	-4.516256	1.335207
C	-0.736778	1.276136	0.319257
C	-0.37562	2.027332	-0.802098
C	-1.095772	3.167839	-1.158369
C	-2.184834	3.57894	-0.395633
C	-1.832845	1.702096	1.079542
C	-2.5509	2.840724	0.72911
H	0.479524	1.727711	-1.396359
H	-0.798008	3.737845	-2.031747
H	-2.740554	4.468492	-0.670159
H	-2.127658	1.130137	1.953885
H	-3.393785	3.154303	1.3352
